Cod. ICE del Producto;C0992716428001;C0992870230001;C1790016919001;C1792049598001;Total Result
3031-53-001425-013-000750-66-108-000037;;;60;;60
3031-53-009849-031-001000-66-101-000027;2,400;;;;2,400
3031-56-002075-013-000750-66-211-000024;;;;170;170
3053-84-026708-013-000200-66-213-000144;;;240;;240
3053-84-026709-013-000200-66-213-000144;;32;;;32
3053-84-026710-013-000200-66-213-000144;;;480;;480
3053-84-026795-013-000200-66-213-000144;;;480;;480
Total Result;2,400;32;1,260;170;3,862